^C:\PROJECT2\EXPERIMENTS\HAPTICINTERACTION\FWTIMEVARIANTFRICTIONSAMPLE\MAIN.CPP
C:\PROJECT2\EXPERIMENTS\HAPTICINTERACTION\FWTIMEVARIANTFRICTIONSAMPLE\FWTIMEVARIANTFRICTION.H
C:\PROJECT2\SPRINGHEAD\CORE\INCLUDE\SPRINGHEAD.H
C:\PROJECT2\SPRINGHEAD\CORE\INCLUDE\SPRDEFS.H
C:\PROJECT2\SPRINGHEAD\CORE\INCLUDE\USECLOSEDSRCORNOT.H
C:\PROJECT2\SPRINGHEAD\CORE\INCLUDE\SPRBASE.H
C:\PROJECT2\SPRINGHEAD\CORE\INCLUDE\BASE\ENV.H
C:\PROGRAM FILES (X86)\WINDOWS KITS\10\INCLUDE\10.0.10240.0\UCRT\FLOAT.H
C:\PROGRAM FILES (X86)\WINDOWS KITS\10\INCLUDE\10.0.10240.0\UCRT\CORECRT.H
C:\PROGRAM FILES (X86)\MICROSOFT VISUAL STUDIO 14.0\VC\INCLUDE\VCRUNTIME.H
C:\PROGRAM FILES (X86)\MICROSOFT VISUAL STUDIO 14.0\VC\INCLUDE\SAL.H
C:\PROGRAM FILES (X86)\MICROSOFT VISUAL STUDIO 14.0\VC\INCLUDE\CONCURRENCYSAL.H
C:\PROGRAM FILES (X86)\MICROSOFT VISUAL STUDIO 14.0\VC\INCLUDE\VADEFS.H
C:\PROJECT2\SPRINGHEAD\CORE\INCLUDE\BASE\BASEDEBUG.H
C:\PROGRAM FILES (X86)\MICROSOFT VISUAL STUDIO 14.0\VC\INCLUDE\STDARG.H
C:\PROGRAM FILES (X86)\MICROSOFT VISUAL STUDIO 14.0\VC\INCLUDE\IOSTREAM
C:\PROGRAM FILES (X86)\MICROSOFT VISUAL STUDIO 14.0\VC\INCLUDE\ISTREAM
C:\PROGRAM FILES (X86)\MICROSOFT VISUAL STUDIO 14.0\VC\INCLUDE\OSTREAM
C:\PROGRAM FILES (X86)\MICROSOFT VISUAL STUDIO 14.0\VC\INCLUDE\IOS
C:\PROGRAM FILES (X86)\MICROSOFT VISUAL STUDIO 14.0\VC\INCLUDE\XLOCNUM
C:\PROGRAM FILES (X86)\MICROSOFT VISUAL STUDIO 14.0\VC\INCLUDE\CLIMITS
C:\PROGRAM FILES (X86)\MICROSOFT VISUAL STUDIO 14.0\VC\INCLUDE\YVALS.H
C:\PROGRAM FILES (X86)\MICROSOFT VISUAL STUDIO 14.0\VC\INCLUDE\XKEYCHECK.H
C:\PROGRAM FILES (X86)\MICROSOFT VISUAL STUDIO 14.0\VC\INCLUDE\CRTDEFS.H
C:\PROGRAM FILES (X86)\MICROSOFT VISUAL STUDIO 14.0\VC\INCLUDE\USE_ANSI.H
C:\PROGRAM FILES (X86)\MICROSOFT VISUAL STUDIO 14.0\VC\INCLUDE\LIMITS.H
C:\PROGRAM FILES (X86)\MICROSOFT VISUAL STUDIO 14.0\VC\INCLUDE\CMATH
C:\PROGRAM FILES (X86)\WINDOWS KITS\10\INCLUDE\10.0.10240.0\UCRT\MATH.H
C:\PROGRAM FILES (X86)\MICROSOFT VISUAL STUDIO 14.0\VC\INCLUDE\XTGMATH.H
C:\PROGRAM FILES (X86)\MICROSOFT VISUAL STUDIO 14.0\VC\INCLUDE\XTR1COMMON
C:\PROGRAM FILES (X86)\MICROSOFT VISUAL STUDIO 14.0\VC\INCLUDE\CSTDLIB
C:\PROGRAM FILES (X86)\WINDOWS KITS\10\INCLUDE\10.0.10240.0\UCRT\STDLIB.H
C:\PROGRAM FILES (X86)\WINDOWS KITS\10\INCLUDE\10.0.10240.0\UCRT\CORECRT_MALLOC.H
C:\PROGRAM FILES (X86)\WINDOWS KITS\10\INCLUDE\10.0.10240.0\UCRT\CORECRT_SEARCH.H
C:\PROGRAM FILES (X86)\WINDOWS KITS\10\INCLUDE\10.0.10240.0\UCRT\STDDEF.H
C:\PROGRAM FILES (X86)\WINDOWS KITS\10\INCLUDE\10.0.10240.0\UCRT\CORECRT_WSTDLIB.H
C:\PROGRAM FILES (X86)\MICROSOFT VISUAL STUDIO 14.0\VC\INCLUDE\CSTDIO
C:\PROGRAM FILES (X86)\WINDOWS KITS\10\INCLUDE\10.0.10240.0\UCRT\STDIO.H
C:\PROGRAM FILES (X86)\WINDOWS KITS\10\INCLUDE\10.0.10240.0\UCRT\CORECRT_WSTDIO.H
C:\PROGRAM FILES (X86)\WINDOWS KITS\10\INCLUDE\10.0.10240.0\UCRT\CORECRT_STDIO_CONFIG.H
C:\PROGRAM FILES (X86)\MICROSOFT VISUAL STUDIO 14.0\VC\INCLUDE\STREAMBUF
C:\PROGRAM FILES (X86)\MICROSOFT VISUAL STUDIO 14.0\VC\INCLUDE\XIOSBASE
C:\PROGRAM FILES (X86)\MICROSOFT VISUAL STUDIO 14.0\VC\INCLUDE\XLOCALE
C:\PROGRAM FILES (X86)\MICROSOFT VISUAL STUDIO 14.0\VC\INCLUDE\CSTRING
C:\PROGRAM FILES (X86)\WINDOWS KITS\10\INCLUDE\10.0.10240.0\UCRT\STRING.H
C:\PROGRAM FILES (X86)\WINDOWS KITS\10\INCLUDE\10.0.10240.0\UCRT\CORECRT_MEMORY.H
C:\PROGRAM FILES (X86)\WINDOWS KITS\10\INCLUDE\10.0.10240.0\UCRT\CORECRT_MEMCPY_S.H
C:\PROGRAM FILES (X86)\WINDOWS KITS\10\INCLUDE\10.0.10240.0\UCRT\ERRNO.H
C:\PROGRAM FILES (X86)\MICROSOFT VISUAL STUDIO 14.0\VC\INCLUDE\VCRUNTIME_STRING.H
C:\PROGRAM FILES (X86)\WINDOWS KITS\10\INCLUDE\10.0.10240.0\UCRT\CORECRT_WSTRING.H
C:\PROGRAM FILES (X86)\MICROSOFT VISUAL STUDIO 14.0\VC\INCLUDE\STDEXCEPT
C:\PROGRAM FILES (X86)\MICROSOFT VISUAL STUDIO 14.0\VC\INCLUDE\EXCEPTION
C:\PROGRAM FILES (X86)\MICROSOFT VISUAL STUDIO 14.0\VC\INCLUDE\TYPE_TRAITS
C:\PROGRAM FILES (X86)\MICROSOFT VISUAL STUDIO 14.0\VC\INCLUDE\XSTDDEF
C:\PROGRAM FILES (X86)\MICROSOFT VISUAL STUDIO 14.0\VC\INCLUDE\CSTDDEF
C:\PROGRAM FILES (X86)\MICROSOFT VISUAL STUDIO 14.0\VC\INCLUDE\INITIALIZER_LIST
C:\PROGRAM FILES (X86)\WINDOWS KITS\10\INCLUDE\10.0.10240.0\UCRT\MALLOC.H
C:\PROGRAM FILES (X86)\MICROSOFT VISUAL STUDIO 14.0\VC\INCLUDE\VCRUNTIME_EXCEPTION.H
C:\PROGRAM FILES (X86)\MICROSOFT VISUAL STUDIO 14.0\VC\INCLUDE\EH.H
C:\PROGRAM FILES (X86)\WINDOWS KITS\10\INCLUDE\10.0.10240.0\UCRT\CORECRT_TERMINATE.H
C:\PROGRAM FILES (X86)\MICROSOFT VISUAL STUDIO 14.0\VC\INCLUDE\XSTRING
C:\PROGRAM FILES (X86)\MICROSOFT VISUAL STUDIO 14.0\VC\INCLUDE\XMEMORY0
C:\PROGRAM FILES (X86)\MICROSOFT VISUAL STUDIO 14.0\VC\INCLUDE\CSTDINT
C:\PROGRAM FILES (X86)\MICROSOFT VISUAL STUDIO 14.0\VC\INCLUDE\STDINT.H
C:\PROGRAM FILES (X86)\MICROSOFT VISUAL STUDIO 14.0\VC\INCLUDE\LIMITS
C:\PROGRAM FILES (X86)\MICROSOFT VISUAL STUDIO 14.0\VC\INCLUDE\YMATH.H
C:\PROGRAM FILES (X86)\MICROSOFT VISUAL STUDIO 14.0\VC\INCLUDE\CFLOAT
C:\PROGRAM FILES (X86)\MICROSOFT VISUAL STUDIO 14.0\VC\INCLUDE\CWCHAR
C:\PROGRAM FILES (X86)\WINDOWS KITS\10\INCLUDE\10.0.10240.0\UCRT\WCHAR.H
C:\PROGRAM FILES (X86)\WINDOWS KITS\10\INCLUDE\10.0.10240.0\UCRT\CORECRT_WCONIO.H
C:\PROGRAM FILES (X86)\WINDOWS KITS\10\INCLUDE\10.0.10240.0\UCRT\CORECRT_WCTYPE.H
C:\PROGRAM FILES (X86)\WINDOWS KITS\10\INCLUDE\10.0.10240.0\UCRT\CORECRT_WDIRECT.H
C:\PROGRAM FILES (X86)\WINDOWS KITS\10\INCLUDE\10.0.10240.0\UCRT\CORECRT_WIO.H
C:\PROGRAM FILES (X86)\WINDOWS KITS\10\INCLUDE\10.0.10240.0\UCRT\CORECRT_SHARE.H
C:\PROGRAM FILES (X86)\WINDOWS KITS\10\INCLUDE\10.0.10240.0\UCRT\CORECRT_WPROCESS.H
C:\PROGRAM FILES (X86)\WINDOWS KITS\10\INCLUDE\10.0.10240.0\UCRT\CORECRT_WTIME.H
C:\PROGRAM FILES (X86)\WINDOWS KITS\10\INCLUDE\10.0.10240.0\UCRT\SYS\STAT.H
C:\PROGRAM FILES (X86)\WINDOWS KITS\10\INCLUDE\10.0.10240.0\UCRT\SYS\TYPES.H
C:\PROGRAM FILES (X86)\MICROSOFT VISUAL STUDIO 14.0\VC\INCLUDE\NEW
C:\PROGRAM FILES (X86)\MICROSOFT VISUAL STUDIO 14.0\VC\INCLUDE\VCRUNTIME_NEW.H
C:\PROGRAM FILES (X86)\MICROSOFT VISUAL STUDIO 14.0\VC\INCLUDE\XUTILITY
C:\PROGRAM FILES (X86)\MICROSOFT VISUAL STUDIO 14.0\VC\INCLUDE\UTILITY
C:\PROGRAM FILES (X86)\MICROSOFT VISUAL STUDIO 14.0\VC\INCLUDE\IOSFWD
C:\PROGRAM FILES (X86)\WINDOWS KITS\10\INCLUDE\10.0.10240.0\UCRT\CRTDBG.H
C:\PROGRAM FILES (X86)\MICROSOFT VISUAL STUDIO 14.0\VC\INCLUDE\VCRUNTIME_NEW_DEBUG.H
C:\PROGRAM FILES (X86)\MICROSOFT VISUAL STUDIO 14.0\VC\INCLUDE\XATOMIC0.H
C:\PROGRAM FILES (X86)\MICROSOFT VISUAL STUDIO 14.0\VC\INCLUDE\INTRIN.H
C:\PROGRAM FILES (X86)\MICROSOFT VISUAL STUDIO 14.0\VC\INCLUDE\SETJMP.H
C:\PROGRAM FILES (X86)\MICROSOFT VISUAL STUDIO 14.0\VC\INCLUDE\IMMINTRIN.H
C:\PROGRAM FILES (X86)\MICROSOFT VISUAL STUDIO 14.0\VC\INCLUDE\WMMINTRIN.H
C:\PROGRAM FILES (X86)\MICROSOFT VISUAL STUDIO 14.0\VC\INCLUDE\NMMINTRIN.H
C:\PROGRAM FILES (X86)\MICROSOFT VISUAL STUDIO 14.0\VC\INCLUDE\SMMINTRIN.H
C:\PROGRAM FILES (X86)\MICROSOFT VISUAL STUDIO 14.0\VC\INCLUDE\TMMINTRIN.H
C:\PROGRAM FILES (X86)\MICROSOFT VISUAL STUDIO 14.0\VC\INCLUDE\PMMINTRIN.H
C:\PROGRAM FILES (X86)\MICROSOFT VISUAL STUDIO 14.0\VC\INCLUDE\EMMINTRIN.H
C:\PROGRAM FILES (X86)\MICROSOFT VISUAL STUDIO 14.0\VC\INCLUDE\XMMINTRIN.H
C:\PROGRAM FILES (X86)\MICROSOFT VISUAL STUDIO 14.0\VC\INCLUDE\MMINTRIN.H
C:\PROGRAM FILES (X86)\MICROSOFT VISUAL STUDIO 14.0\VC\INCLUDE\AMMINTRIN.H
C:\PROGRAM FILES (X86)\MICROSOFT VISUAL STUDIO 14.0\VC\INCLUDE\MM3DNOW.H
C:\PROGRAM FILES (X86)\MICROSOFT VISUAL STUDIO 14.0\VC\INCLUDE\TYPEINFO
C:\PROGRAM FILES (X86)\MICROSOFT VISUAL STUDIO 14.0\VC\INCLUDE\VCRUNTIME_TYPEINFO.H
C:\PROGRAM FILES (X86)\MICROSOFT VISUAL STUDIO 14.0\VC\INCLUDE\XLOCINFO
C:\PROGRAM FILES (X86)\MICROSOFT VISUAL STUDIO 14.0\VC\INCLUDE\XLOCINFO.H
C:\PROGRAM FILES (X86)\WINDOWS KITS\10\INCLUDE\10.0.10240.0\UCRT\CTYPE.H
C:\PROGRAM FILES (X86)\WINDOWS KITS\10\INCLUDE\10.0.10240.0\UCRT\LOCALE.H
C:\PROGRAM FILES (X86)\MICROSOFT VISUAL STUDIO 14.0\VC\INCLUDE\XFACET
C:\PROGRAM FILES (X86)\MICROSOFT VISUAL STUDIO 14.0\VC\INCLUDE\SYSTEM_ERROR
C:\PROGRAM FILES (X86)\MICROSOFT VISUAL STUDIO 14.0\VC\INCLUDE\CERRNO
C:\PROGRAM FILES (X86)\WINDOWS KITS\10\INCLUDE\10.0.10240.0\UCRT\SHARE.H
C:\PROGRAM FILES (X86)\MICROSOFT VISUAL STUDIO 14.0\VC\INCLUDE\FSTREAM
C:\PROGRAM FILES (X86)\MICROSOFT VISUAL STUDIO 14.0\VC\INCLUDE\SSTREAM
C:\PROGRAM FILES (X86)\MICROSOFT VISUAL STUDIO 14.0\VC\INCLUDE\STRING
C:\PROGRAM FILES (X86)\WINDOWS KITS\10\INCLUDE\10.0.10240.0\UCRT\ASSERT.H
C:\PROJECT2\SPRINGHEAD\CORE\INCLUDE\BASE\BASEUTILITY.H
C:\PROGRAM FILES (X86)\MICROSOFT VISUAL STUDIO 14.0\VC\INCLUDE\ALGORITHM
C:\PROGRAM FILES (X86)\MICROSOFT VISUAL STUDIO 14.0\VC\INCLUDE\XMEMORY
C:\PROGRAM FILES (X86)\MICROSOFT VISUAL STUDIO 14.0\VC\INCLUDE\VECTOR
C:\PROJECT2\SPRINGHEAD\CORE\INCLUDE\BASE\TVECTOR.H
C:\PROJECT2\SPRINGHEAD\CORE\INCLUDE\BASE\TMATRIX.H
C:\PROJECT2\SPRINGHEAD\CORE\INCLUDE\BASE\TINYVEC.H
C:\PROJECT2\SPRINGHEAD\CORE\INCLUDE\BASE\TINYMAT.H
C:\PROJECT2\SPRINGHEAD\CORE\INCLUDE\BASE\TMATRIXUTILITY.H
C:\PROJECT2\SPRINGHEAD\CORE\INCLUDE\BASE\TQUATERNION.H
C:\PROJECT2\SPRINGHEAD\CORE\INCLUDE\BASE\AFFINE.H
C:\PROJECT2\SPRINGHEAD\CORE\INCLUDE\BASE\VECTORDEBUG.H
C:\PROJECT2\SPRINGHEAD\CORE\INCLUDE\BASE\TCURVE.H
C:\PROGRAM FILES (X86)\MICROSOFT VISUAL STUDIO 14.0\VC\INCLUDE\TUPLE
C:\PROJECT2\SPRINGHEAD\CORE\INCLUDE\BASE\BASETYPEINFO.H
C:\PROJECT2\SPRINGHEAD\CORE\INCLUDE\SPRFOUNDATION.H
C:\PROJECT2\SPRINGHEAD\CORE\INCLUDE\FOUNDATION\SPROBJECT.H
C:\PROJECT2\SPRINGHEAD\CORE\INCLUDE\FOUNDATION\SPRSCENE.H
C:\PROJECT2\SPRINGHEAD\CORE\INCLUDE\FOUNDATION\SPRUTTIMER.H
C:\PROJECT2\SPRINGHEAD\CORE\INCLUDE\FOUNDATION\SPRUTCRITICALSECTION.H
C:\PROJECT2\SPRINGHEAD\CORE\INCLUDE\SPRCOLLISION.H
C:\PROJECT2\SPRINGHEAD\CORE\INCLUDE\COLLISION\SPRCDSHAPE.H
C:\PROJECT2\SPRINGHEAD\CORE\INCLUDE\COLLISION\SPRCDDETECTOR.H
C:\PROJECT2\SPRINGHEAD\CORE\INCLUDE\COLLISION\SPRCDSPHASH.H
C:\PROJECT2\SPRINGHEAD\CORE\INCLUDE\SPRPHYSICS.H
C:\PROJECT2\SPRINGHEAD\CORE\INCLUDE\PHYSICS\SPRPHDEF.H
C:\PROJECT2\SPRINGHEAD\CORE\INCLUDE\PHYSICS\SPRPHSDK.H
C:\PROJECT2\SPRINGHEAD\CORE\INCLUDE\PHYSICS\SPRPHSCENE.H
C:\PROJECT2\SPRINGHEAD\CORE\INCLUDE\PHYSICS\SPRPHSOLID.H
C:\PROJECT2\SPRINGHEAD\CORE\INCLUDE\BASE\SPATIAL.H
C:\PROJECT2\SPRINGHEAD\CORE\INCLUDE\PHYSICS\SPRPHJOINT.H
C:\PROJECT2\SPRINGHEAD\CORE\INCLUDE\PHYSICS\SPRPHJOINTLIMIT.H
C:\PROJECT2\SPRINGHEAD\CORE\INCLUDE\PHYSICS\SPRPHJOINTMOTOR.H
C:\PROGRAM FILES (X86)\MICROSOFT VISUAL STUDIO 14.0\VC\INCLUDE\FUNCTIONAL
C:\PROGRAM FILES (X86)\MICROSOFT VISUAL STUDIO 14.0\VC\INCLUDE\XFUNCTIONAL
C:\PROJECT2\SPRINGHEAD\CORE\INCLUDE\PHYSICS\SPRPHIK.H
C:\PROJECT2\SPRINGHEAD\CORE\INCLUDE\PHYSICS\SPRPHENGINE.H
C:\PROJECT2\SPRINGHEAD\CORE\INCLUDE\PHYSICS\SPRPHOPOBJ.H
C:\PROJECT2\SPRINGHEAD\CORE\INCLUDE\PHYSICS\SPRPHFEMMESH.H
C:\PROJECT2\SPRINGHEAD\CORE\INCLUDE\PHYSICS\SPRPHFEMMESHNEW.H
C:\PROJECT2\SPRINGHEAD\CORE\INCLUDE\PHYSICS\SPRPHHAPTIC.H
C:\PROJECT2\SPRINGHEAD\CORE\INCLUDE\PHYSICS\SPRPHSKELETON.H
C:\PROJECT2\SPRINGHEAD\CORE\INCLUDE\PHYSICS\SPRPHOPSPHASHAGENT.H
C:\PROJECT2\SPRINGHEAD\CORE\INCLUDE\PHYSICS\SPRPHNODEHANDLERS.H
C:\PROJECT2\SPRINGHEAD\CORE\INCLUDE\SPRGRAPHICS.H
C:\PROJECT2\SPRINGHEAD\CORE\INCLUDE\GRAPHICS\SPRGRRENDER.H
C:\PROJECT2\SPRINGHEAD\CORE\INCLUDE\GRAPHICS\SPRGRFRAME.H
C:\PROJECT2\SPRINGHEAD\CORE\INCLUDE\GRAPHICS\SPRGRVERTEX.H
C:\PROJECT2\SPRINGHEAD\CORE\INCLUDE\GRAPHICS\SPRGRSHADER.H
C:\PROJECT2\SPRINGHEAD\CORE\INCLUDE\GRAPHICS\SPRGRSDK.H
C:\PROJECT2\SPRINGHEAD\CORE\INCLUDE\GRAPHICS\SPRGRSCENE.H
C:\PROJECT2\SPRINGHEAD\CORE\INCLUDE\GRAPHICS\SPRGRMESH.H
C:\PROJECT2\SPRINGHEAD\CORE\INCLUDE\GRAPHICS\SPRGRBLENDMESH.H
C:\PROJECT2\SPRINGHEAD\CORE\INCLUDE\GRAPHICS\SPRGRSPHERE.H
C:\PROJECT2\SPRINGHEAD\CORE\INCLUDE\SPRFILEIO.H
C:\PROJECT2\SPRINGHEAD\CORE\INCLUDE\FILEIO\SPRFISDK.H
C:\PROJECT2\SPRINGHEAD\CORE\INCLUDE\FILEIO\SPRFIFILE.H
C:\PROJECT2\SPRINGHEAD\CORE\INCLUDE\FILEIO\SPRFIIMPORT.H
C:\PROJECT2\SPRINGHEAD\CORE\INCLUDE\FILEIO\SPRFIOPSTATEHANDLER.H
C:\PROJECT2\SPRINGHEAD\CORE\INCLUDE\SPRHUMANINTERFACE.H
C:\PROJECT2\SPRINGHEAD\CORE\INCLUDE\HUMANINTERFACE\SPRHISDK.H
C:\PROJECT2\SPRINGHEAD\CORE\INCLUDE\HUMANINTERFACE\SPRHIBASE.H
C:\PROJECT2\SPRINGHEAD\CORE\INCLUDE\HUMANINTERFACE\SPRHIDEVICE.H
C:\PROJECT2\SPRINGHEAD\CORE\INCLUDE\HUMANINTERFACE\SPRHUMANINTERFACEDECL.HPP
C:\PROJECT2\SPRINGHEAD\CORE\INCLUDE\HUMANINTERFACE\SPRHISPIDAR.H
C:\PROJECT2\SPRINGHEAD\CORE\INCLUDE\HUMANINTERFACE\SPRHINOVINT.H
C:\PROJECT2\SPRINGHEAD\CORE\INCLUDE\HUMANINTERFACE\SPRHIKEYMOUSE.H
C:\PROJECT2\SPRINGHEAD\CORE\INCLUDE\HUMANINTERFACE\SPRHIJOYSTICK.H
C:\PROJECT2\SPRINGHEAD\CORE\INCLUDE\HUMANINTERFACE\SPRHITRACKBALL.H
C:\PROJECT2\SPRINGHEAD\CORE\INCLUDE\HUMANINTERFACE\SPRHIDRUSB.H
C:\PROJECT2\SPRINGHEAD\CORE\INCLUDE\HUMANINTERFACE\SPRHISPACENAVIGATOR.H
C:\PROJECT2\SPRINGHEAD\CORE\INCLUDE\HUMANINTERFACE\SPRHIXBOX360CONTROLLER.H
C:\PROJECT2\SPRINGHEAD\CORE\INCLUDE\HUMANINTERFACE\SPRHISKELETONSENSOR.H
C:\PROJECT2\SPRINGHEAD\CORE\INCLUDE\HUMANINTERFACE\SPRHILEAP.H
C:\PROJECT2\SPRINGHEAD\CORE\INCLUDE\SPRDEVICE.H
C:\PROJECT2\SPRINGHEAD\CORE\INCLUDE\SPRFRAMEWORK.H
C:\PROJECT2\SPRINGHEAD\CORE\INCLUDE\FRAMEWORK\SPRFWOBJECT.H
C:\PROJECT2\SPRINGHEAD\CORE\INCLUDE\FRAMEWORK\SPRFWSCENE.H
C:\PROJECT2\SPRINGHEAD\CORE\INCLUDE\FRAMEWORK\SPRFWSKELETONSENSOR.H
C:\PROJECT2\SPRINGHEAD\CORE\INCLUDE\FRAMEWORK\SPRFWSDK.H
C:\PROJECT2\SPRINGHEAD\CORE\INCLUDE\FRAMEWORK\SPRFWFEMMESH.H
C:\PROJECT2\SPRINGHEAD\CORE\INCLUDE\FRAMEWORK\SPRFWFEMMESHNEW.H
C:\PROJECT2\SPRINGHEAD\CORE\INCLUDE\FRAMEWORK\SPRFWWIN.H
C:\PROJECT2\SPRINGHEAD\CORE\INCLUDE\FRAMEWORK\SPRFWHAPTICPOINTER.H
C:\PROJECT2\SPRINGHEAD\CORE\INCLUDE\FRAMEWORK\SPRFWOPTIMIZER.H
C:\PROJECT2\SPRINGHEAD\CLOSED\INCLUDE\CMAES\CMAES.H
C:\PROJECT2\SPRINGHEAD\CLOSED\INCLUDE\CMAES\PARAMETERS.H
C:\PROJECT2\SPRINGHEAD\CLOSED\INCLUDE\CMAES\RANDOM.H
C:\PROGRAM FILES (X86)\MICROSOFT VISUAL STUDIO 14.0\VC\INCLUDE\CTIME
C:\PROGRAM FILES (X86)\WINDOWS KITS\10\INCLUDE\10.0.10240.0\UCRT\TIME.H
C:\PROJECT2\SPRINGHEAD\CLOSED\INCLUDE\CMAES\TIMINGS.H
C:\PROJECT2\SPRINGHEAD\CLOSED\INCLUDE\CMAES\UTILS.H
C:\PROGRAM FILES (X86)\MICROSOFT VISUAL STUDIO 14.0\VC\INCLUDE\CASSERT
C:\PROGRAM FILES (X86)\MICROSOFT VISUAL STUDIO 14.0\VC\INCLUDE\IOMANIP
C:\PROGRAM FILES (X86)\MICROSOFT VISUAL STUDIO 14.0\VC\INCLUDE\XLOCMON
C:\PROGRAM FILES (X86)\MICROSOFT VISUAL STUDIO 14.0\VC\INCLUDE\XLOCTIME
C:\PROGRAM FILES (X86)\MICROSOFT VISUAL STUDIO 14.0\VC\INCLUDE\CHRONO
C:\PROGRAM FILES (X86)\MICROSOFT VISUAL STUDIO 14.0\VC\INCLUDE\RATIO
C:\PROGRAM FILES (X86)\MICROSOFT VISUAL STUDIO 14.0\VC\INCLUDE\THR\XTIMEC.H
C:\PROGRAM FILES (X86)\MICROSOFT VISUAL STUDIO 14.0\VC\INCLUDE\THR\XTHRCOMMON.H
C:\PROGRAM FILES (X86)\MICROSOFT VISUAL STUDIO 14.0\VC\INCLUDE\QUEUE
C:\PROGRAM FILES (X86)\MICROSOFT VISUAL STUDIO 14.0\VC\INCLUDE\DEQUE
C:\PROJECT2\SPRINGHEAD\CORE\INCLUDE\SPRCREATURE.H
C:\PROJECT2\SPRINGHEAD\CORE\INCLUDE\CREATURE\SPRCRSDK.H
C:\PROJECT2\SPRINGHEAD\CORE\INCLUDE\CREATURE\SPRCRCREATURE.H
C:\PROJECT2\SPRINGHEAD\CORE\INCLUDE\CREATURE\SPRCRBODY.H
C:\PROJECT2\SPRINGHEAD\CORE\INCLUDE\CREATURE\SPRCRBONE.H
C:\PROJECT2\SPRINGHEAD\CORE\INCLUDE\CREATURE\SPRCRENGINE.H
C:\PROJECT2\SPRINGHEAD\CORE\INCLUDE\CREATURE\SPRCRCONTROLLER.H
C:\PROJECT2\SPRINGHEAD\CORE\INCLUDE\CREATURE\SPRCRREACHCONTROLLER.H
C:\PROJECT2\SPRINGHEAD\CORE\INCLUDE\CREATURE\SPRCRTOUCHSENSOR.H
C:\PROJECT2\SPRINGHEAD\CORE\INCLUDE\CREATURE\SPRCRVISUALSENSOR.H
C:\PROJECT2\SPRINGHEAD\CORE\INCLUDE\FRAMEWORK\SPRFWAPP.H
C:\PROJECT2\SPRINGHEAD\CORE\INCLUDE\FRAMEWORK\SPRFWCONSOLEDEBUGMONITOR.H
C:\PROJECT2\SPRINGHEAD\DEPENDENCY\SRC\AL\AL.H
C:\PROJECT2\SPRINGHEAD\DEPENDENCY\SRC\AL\ALC.H
^C:\PROJECT2\EXPERIMENTS\HAPTICINTERACTION\FWTIMEVARIANTFRICTIONSAMPLE\FWTIMEVARIANTFRICTION.CPP
C:\WINDOWS\GLOBALIZATION\SORTING\SORTDEFAULT.NLS
C:\PROGRAM FILES (X86)\MICROSOFT VISUAL STUDIO 14.0\VC\BIN\1041\CLUI.DLL
C:\WINDOWS\SYSTEM32\TZRES.DLL
C:\PROJECT2\EXPERIMENTS\HAPTICINTERACTION\FWTIMEVARIANTFRICTIONSAMPLE\FWTIMEVARIANTFRICTION.H
C:\PROJECT2\SPRINGHEAD\CORE\INCLUDE\SPRINGHEAD.H
C:\PROJECT2\SPRINGHEAD\CORE\INCLUDE\SPRDEFS.H
C:\PROJECT2\SPRINGHEAD\CORE\INCLUDE\USECLOSEDSRCORNOT.H
C:\PROJECT2\SPRINGHEAD\CORE\INCLUDE\SPRBASE.H
C:\PROJECT2\SPRINGHEAD\CORE\INCLUDE\BASE\ENV.H
C:\PROGRAM FILES (X86)\WINDOWS KITS\10\INCLUDE\10.0.10240.0\UCRT\FLOAT.H
C:\PROGRAM FILES (X86)\WINDOWS KITS\10\INCLUDE\10.0.10240.0\UCRT\CORECRT.H
C:\PROGRAM FILES (X86)\MICROSOFT VISUAL STUDIO 14.0\VC\INCLUDE\VCRUNTIME.H
C:\PROGRAM FILES (X86)\MICROSOFT VISUAL STUDIO 14.0\VC\INCLUDE\SAL.H
C:\PROGRAM FILES (X86)\MICROSOFT VISUAL STUDIO 14.0\VC\INCLUDE\CONCURRENCYSAL.H
C:\PROGRAM FILES (X86)\MICROSOFT VISUAL STUDIO 14.0\VC\INCLUDE\VADEFS.H
C:\PROJECT2\SPRINGHEAD\CORE\INCLUDE\BASE\BASEDEBUG.H
C:\PROGRAM FILES (X86)\MICROSOFT VISUAL STUDIO 14.0\VC\INCLUDE\STDARG.H
C:\PROGRAM FILES (X86)\MICROSOFT VISUAL STUDIO 14.0\VC\INCLUDE\IOSTREAM
C:\PROGRAM FILES (X86)\MICROSOFT VISUAL STUDIO 14.0\VC\INCLUDE\ISTREAM
C:\PROGRAM FILES (X86)\MICROSOFT VISUAL STUDIO 14.0\VC\INCLUDE\OSTREAM
C:\PROGRAM FILES (X86)\MICROSOFT VISUAL STUDIO 14.0\VC\INCLUDE\IOS
C:\PROGRAM FILES (X86)\MICROSOFT VISUAL STUDIO 14.0\VC\INCLUDE\XLOCNUM
C:\PROGRAM FILES (X86)\MICROSOFT VISUAL STUDIO 14.0\VC\INCLUDE\CLIMITS
C:\PROGRAM FILES (X86)\MICROSOFT VISUAL STUDIO 14.0\VC\INCLUDE\YVALS.H
C:\PROGRAM FILES (X86)\MICROSOFT VISUAL STUDIO 14.0\VC\INCLUDE\XKEYCHECK.H
C:\PROGRAM FILES (X86)\MICROSOFT VISUAL STUDIO 14.0\VC\INCLUDE\CRTDEFS.H
C:\PROGRAM FILES (X86)\MICROSOFT VISUAL STUDIO 14.0\VC\INCLUDE\USE_ANSI.H
C:\PROGRAM FILES (X86)\MICROSOFT VISUAL STUDIO 14.0\VC\INCLUDE\LIMITS.H
C:\PROGRAM FILES (X86)\MICROSOFT VISUAL STUDIO 14.0\VC\INCLUDE\CMATH
C:\PROGRAM FILES (X86)\WINDOWS KITS\10\INCLUDE\10.0.10240.0\UCRT\MATH.H
C:\PROGRAM FILES (X86)\MICROSOFT VISUAL STUDIO 14.0\VC\INCLUDE\XTGMATH.H
C:\PROGRAM FILES (X86)\MICROSOFT VISUAL STUDIO 14.0\VC\INCLUDE\XTR1COMMON
C:\PROGRAM FILES (X86)\MICROSOFT VISUAL STUDIO 14.0\VC\INCLUDE\CSTDLIB
C:\PROGRAM FILES (X86)\WINDOWS KITS\10\INCLUDE\10.0.10240.0\UCRT\STDLIB.H
C:\PROGRAM FILES (X86)\WINDOWS KITS\10\INCLUDE\10.0.10240.0\UCRT\CORECRT_MALLOC.H
C:\PROGRAM FILES (X86)\WINDOWS KITS\10\INCLUDE\10.0.10240.0\UCRT\CORECRT_SEARCH.H
C:\PROGRAM FILES (X86)\WINDOWS KITS\10\INCLUDE\10.0.10240.0\UCRT\STDDEF.H
C:\PROGRAM FILES (X86)\WINDOWS KITS\10\INCLUDE\10.0.10240.0\UCRT\CORECRT_WSTDLIB.H
C:\PROGRAM FILES (X86)\MICROSOFT VISUAL STUDIO 14.0\VC\INCLUDE\CSTDIO
C:\PROGRAM FILES (X86)\WINDOWS KITS\10\INCLUDE\10.0.10240.0\UCRT\STDIO.H
C:\PROGRAM FILES (X86)\WINDOWS KITS\10\INCLUDE\10.0.10240.0\UCRT\CORECRT_WSTDIO.H
C:\PROGRAM FILES (X86)\WINDOWS KITS\10\INCLUDE\10.0.10240.0\UCRT\CORECRT_STDIO_CONFIG.H
C:\PROGRAM FILES (X86)\MICROSOFT VISUAL STUDIO 14.0\VC\INCLUDE\STREAMBUF
C:\PROGRAM FILES (X86)\MICROSOFT VISUAL STUDIO 14.0\VC\INCLUDE\XIOSBASE
C:\PROGRAM FILES (X86)\MICROSOFT VISUAL STUDIO 14.0\VC\INCLUDE\XLOCALE
C:\PROGRAM FILES (X86)\MICROSOFT VISUAL STUDIO 14.0\VC\INCLUDE\CSTRING
C:\PROGRAM FILES (X86)\WINDOWS KITS\10\INCLUDE\10.0.10240.0\UCRT\STRING.H
C:\PROGRAM FILES (X86)\WINDOWS KITS\10\INCLUDE\10.0.10240.0\UCRT\CORECRT_MEMORY.H
C:\PROGRAM FILES (X86)\WINDOWS KITS\10\INCLUDE\10.0.10240.0\UCRT\CORECRT_MEMCPY_S.H
C:\PROGRAM FILES (X86)\WINDOWS KITS\10\INCLUDE\10.0.10240.0\UCRT\ERRNO.H
C:\PROGRAM FILES (X86)\MICROSOFT VISUAL STUDIO 14.0\VC\INCLUDE\VCRUNTIME_STRING.H
C:\PROGRAM FILES (X86)\WINDOWS KITS\10\INCLUDE\10.0.10240.0\UCRT\CORECRT_WSTRING.H
C:\PROGRAM FILES (X86)\MICROSOFT VISUAL STUDIO 14.0\VC\INCLUDE\STDEXCEPT
C:\PROGRAM FILES (X86)\MICROSOFT VISUAL STUDIO 14.0\VC\INCLUDE\EXCEPTION
C:\PROGRAM FILES (X86)\MICROSOFT VISUAL STUDIO 14.0\VC\INCLUDE\TYPE_TRAITS
C:\PROGRAM FILES (X86)\MICROSOFT VISUAL STUDIO 14.0\VC\INCLUDE\XSTDDEF
C:\PROGRAM FILES (X86)\MICROSOFT VISUAL STUDIO 14.0\VC\INCLUDE\CSTDDEF
C:\PROGRAM FILES (X86)\MICROSOFT VISUAL STUDIO 14.0\VC\INCLUDE\INITIALIZER_LIST
C:\PROGRAM FILES (X86)\WINDOWS KITS\10\INCLUDE\10.0.10240.0\UCRT\MALLOC.H
C:\PROGRAM FILES (X86)\MICROSOFT VISUAL STUDIO 14.0\VC\INCLUDE\VCRUNTIME_EXCEPTION.H
C:\PROGRAM FILES (X86)\MICROSOFT VISUAL STUDIO 14.0\VC\INCLUDE\EH.H
C:\PROGRAM FILES (X86)\WINDOWS KITS\10\INCLUDE\10.0.10240.0\UCRT\CORECRT_TERMINATE.H
C:\PROGRAM FILES (X86)\MICROSOFT VISUAL STUDIO 14.0\VC\INCLUDE\XSTRING
C:\PROGRAM FILES (X86)\MICROSOFT VISUAL STUDIO 14.0\VC\INCLUDE\XMEMORY0
C:\PROGRAM FILES (X86)\MICROSOFT VISUAL STUDIO 14.0\VC\INCLUDE\CSTDINT
C:\PROGRAM FILES (X86)\MICROSOFT VISUAL STUDIO 14.0\VC\INCLUDE\STDINT.H
C:\PROGRAM FILES (X86)\MICROSOFT VISUAL STUDIO 14.0\VC\INCLUDE\LIMITS
C:\PROGRAM FILES (X86)\MICROSOFT VISUAL STUDIO 14.0\VC\INCLUDE\YMATH.H
C:\PROGRAM FILES (X86)\MICROSOFT VISUAL STUDIO 14.0\VC\INCLUDE\CFLOAT
C:\PROGRAM FILES (X86)\MICROSOFT VISUAL STUDIO 14.0\VC\INCLUDE\CWCHAR
C:\PROGRAM FILES (X86)\WINDOWS KITS\10\INCLUDE\10.0.10240.0\UCRT\WCHAR.H
C:\PROGRAM FILES (X86)\WINDOWS KITS\10\INCLUDE\10.0.10240.0\UCRT\CORECRT_WCONIO.H
C:\PROGRAM FILES (X86)\WINDOWS KITS\10\INCLUDE\10.0.10240.0\UCRT\CORECRT_WCTYPE.H
C:\PROGRAM FILES (X86)\WINDOWS KITS\10\INCLUDE\10.0.10240.0\UCRT\CORECRT_WDIRECT.H
C:\PROGRAM FILES (X86)\WINDOWS KITS\10\INCLUDE\10.0.10240.0\UCRT\CORECRT_WIO.H
C:\PROGRAM FILES (X86)\WINDOWS KITS\10\INCLUDE\10.0.10240.0\UCRT\CORECRT_SHARE.H
C:\PROGRAM FILES (X86)\WINDOWS KITS\10\INCLUDE\10.0.10240.0\UCRT\CORECRT_WPROCESS.H
C:\PROGRAM FILES (X86)\WINDOWS KITS\10\INCLUDE\10.0.10240.0\UCRT\CORECRT_WTIME.H
C:\PROGRAM FILES (X86)\WINDOWS KITS\10\INCLUDE\10.0.10240.0\UCRT\SYS\STAT.H
C:\PROGRAM FILES (X86)\WINDOWS KITS\10\INCLUDE\10.0.10240.0\UCRT\SYS\TYPES.H
C:\PROGRAM FILES (X86)\MICROSOFT VISUAL STUDIO 14.0\VC\INCLUDE\NEW
C:\PROGRAM FILES (X86)\MICROSOFT VISUAL STUDIO 14.0\VC\INCLUDE\VCRUNTIME_NEW.H
C:\PROGRAM FILES (X86)\MICROSOFT VISUAL STUDIO 14.0\VC\INCLUDE\XUTILITY
C:\PROGRAM FILES (X86)\MICROSOFT VISUAL STUDIO 14.0\VC\INCLUDE\UTILITY
C:\PROGRAM FILES (X86)\MICROSOFT VISUAL STUDIO 14.0\VC\INCLUDE\IOSFWD
C:\PROGRAM FILES (X86)\WINDOWS KITS\10\INCLUDE\10.0.10240.0\UCRT\CRTDBG.H
C:\PROGRAM FILES (X86)\MICROSOFT VISUAL STUDIO 14.0\VC\INCLUDE\VCRUNTIME_NEW_DEBUG.H
C:\PROGRAM FILES (X86)\MICROSOFT VISUAL STUDIO 14.0\VC\INCLUDE\XATOMIC0.H
C:\PROGRAM FILES (X86)\MICROSOFT VISUAL STUDIO 14.0\VC\INCLUDE\INTRIN.H
C:\PROGRAM FILES (X86)\MICROSOFT VISUAL STUDIO 14.0\VC\INCLUDE\SETJMP.H
C:\PROGRAM FILES (X86)\MICROSOFT VISUAL STUDIO 14.0\VC\INCLUDE\IMMINTRIN.H
C:\PROGRAM FILES (X86)\MICROSOFT VISUAL STUDIO 14.0\VC\INCLUDE\WMMINTRIN.H
C:\PROGRAM FILES (X86)\MICROSOFT VISUAL STUDIO 14.0\VC\INCLUDE\NMMINTRIN.H
C:\PROGRAM FILES (X86)\MICROSOFT VISUAL STUDIO 14.0\VC\INCLUDE\SMMINTRIN.H
C:\PROGRAM FILES (X86)\MICROSOFT VISUAL STUDIO 14.0\VC\INCLUDE\TMMINTRIN.H
C:\PROGRAM FILES (X86)\MICROSOFT VISUAL STUDIO 14.0\VC\INCLUDE\PMMINTRIN.H
C:\PROGRAM FILES (X86)\MICROSOFT VISUAL STUDIO 14.0\VC\INCLUDE\EMMINTRIN.H
C:\PROGRAM FILES (X86)\MICROSOFT VISUAL STUDIO 14.0\VC\INCLUDE\XMMINTRIN.H
C:\PROGRAM FILES (X86)\MICROSOFT VISUAL STUDIO 14.0\VC\INCLUDE\MMINTRIN.H
C:\PROGRAM FILES (X86)\MICROSOFT VISUAL STUDIO 14.0\VC\INCLUDE\AMMINTRIN.H
C:\PROGRAM FILES (X86)\MICROSOFT VISUAL STUDIO 14.0\VC\INCLUDE\MM3DNOW.H
C:\PROGRAM FILES (X86)\MICROSOFT VISUAL STUDIO 14.0\VC\INCLUDE\TYPEINFO
C:\PROGRAM FILES (X86)\MICROSOFT VISUAL STUDIO 14.0\VC\INCLUDE\VCRUNTIME_TYPEINFO.H
C:\PROGRAM FILES (X86)\MICROSOFT VISUAL STUDIO 14.0\VC\INCLUDE\XLOCINFO
C:\PROGRAM FILES (X86)\MICROSOFT VISUAL STUDIO 14.0\VC\INCLUDE\XLOCINFO.H
C:\PROGRAM FILES (X86)\WINDOWS KITS\10\INCLUDE\10.0.10240.0\UCRT\CTYPE.H
C:\PROGRAM FILES (X86)\WINDOWS KITS\10\INCLUDE\10.0.10240.0\UCRT\LOCALE.H
C:\PROGRAM FILES (X86)\MICROSOFT VISUAL STUDIO 14.0\VC\INCLUDE\XFACET
C:\PROGRAM FILES (X86)\MICROSOFT VISUAL STUDIO 14.0\VC\INCLUDE\SYSTEM_ERROR
C:\PROGRAM FILES (X86)\MICROSOFT VISUAL STUDIO 14.0\VC\INCLUDE\CERRNO
C:\PROGRAM FILES (X86)\WINDOWS KITS\10\INCLUDE\10.0.10240.0\UCRT\SHARE.H
C:\PROGRAM FILES (X86)\MICROSOFT VISUAL STUDIO 14.0\VC\INCLUDE\FSTREAM
C:\PROGRAM FILES (X86)\MICROSOFT VISUAL STUDIO 14.0\VC\INCLUDE\SSTREAM
C:\PROGRAM FILES (X86)\MICROSOFT VISUAL STUDIO 14.0\VC\INCLUDE\STRING
C:\PROGRAM FILES (X86)\WINDOWS KITS\10\INCLUDE\10.0.10240.0\UCRT\ASSERT.H
C:\PROJECT2\SPRINGHEAD\CORE\INCLUDE\BASE\BASEUTILITY.H
C:\PROGRAM FILES (X86)\MICROSOFT VISUAL STUDIO 14.0\VC\INCLUDE\ALGORITHM
C:\PROGRAM FILES (X86)\MICROSOFT VISUAL STUDIO 14.0\VC\INCLUDE\XMEMORY
C:\PROGRAM FILES (X86)\MICROSOFT VISUAL STUDIO 14.0\VC\INCLUDE\VECTOR
C:\PROJECT2\SPRINGHEAD\CORE\INCLUDE\BASE\TVECTOR.H
C:\PROJECT2\SPRINGHEAD\CORE\INCLUDE\BASE\TMATRIX.H
C:\PROJECT2\SPRINGHEAD\CORE\INCLUDE\BASE\TINYVEC.H
C:\PROJECT2\SPRINGHEAD\CORE\INCLUDE\BASE\TINYMAT.H
C:\PROJECT2\SPRINGHEAD\CORE\INCLUDE\BASE\TMATRIXUTILITY.H
C:\PROJECT2\SPRINGHEAD\CORE\INCLUDE\BASE\TQUATERNION.H
C:\PROJECT2\SPRINGHEAD\CORE\INCLUDE\BASE\AFFINE.H
C:\PROJECT2\SPRINGHEAD\CORE\INCLUDE\BASE\VECTORDEBUG.H
C:\PROJECT2\SPRINGHEAD\CORE\INCLUDE\BASE\TCURVE.H
C:\PROGRAM FILES (X86)\MICROSOFT VISUAL STUDIO 14.0\VC\INCLUDE\TUPLE
C:\PROJECT2\SPRINGHEAD\CORE\INCLUDE\BASE\BASETYPEINFO.H
C:\PROJECT2\SPRINGHEAD\CORE\INCLUDE\SPRFOUNDATION.H
C:\PROJECT2\SPRINGHEAD\CORE\INCLUDE\FOUNDATION\SPROBJECT.H
C:\PROJECT2\SPRINGHEAD\CORE\INCLUDE\FOUNDATION\SPRSCENE.H
C:\PROJECT2\SPRINGHEAD\CORE\INCLUDE\FOUNDATION\SPRUTTIMER.H
C:\PROJECT2\SPRINGHEAD\CORE\INCLUDE\FOUNDATION\SPRUTCRITICALSECTION.H
C:\PROJECT2\SPRINGHEAD\CORE\INCLUDE\SPRCOLLISION.H
C:\PROJECT2\SPRINGHEAD\CORE\INCLUDE\COLLISION\SPRCDSHAPE.H
C:\PROJECT2\SPRINGHEAD\CORE\INCLUDE\COLLISION\SPRCDDETECTOR.H
C:\PROJECT2\SPRINGHEAD\CORE\INCLUDE\COLLISION\SPRCDSPHASH.H
C:\PROJECT2\SPRINGHEAD\CORE\INCLUDE\SPRPHYSICS.H
C:\PROJECT2\SPRINGHEAD\CORE\INCLUDE\PHYSICS\SPRPHDEF.H
C:\PROJECT2\SPRINGHEAD\CORE\INCLUDE\PHYSICS\SPRPHSDK.H
C:\PROJECT2\SPRINGHEAD\CORE\INCLUDE\PHYSICS\SPRPHSCENE.H
C:\PROJECT2\SPRINGHEAD\CORE\INCLUDE\PHYSICS\SPRPHSOLID.H
C:\PROJECT2\SPRINGHEAD\CORE\INCLUDE\BASE\SPATIAL.H
C:\PROJECT2\SPRINGHEAD\CORE\INCLUDE\PHYSICS\SPRPHJOINT.H
C:\PROJECT2\SPRINGHEAD\CORE\INCLUDE\PHYSICS\SPRPHJOINTLIMIT.H
C:\PROJECT2\SPRINGHEAD\CORE\INCLUDE\PHYSICS\SPRPHJOINTMOTOR.H
C:\PROGRAM FILES (X86)\MICROSOFT VISUAL STUDIO 14.0\VC\INCLUDE\FUNCTIONAL
C:\PROGRAM FILES (X86)\MICROSOFT VISUAL STUDIO 14.0\VC\INCLUDE\XFUNCTIONAL
C:\PROJECT2\SPRINGHEAD\CORE\INCLUDE\PHYSICS\SPRPHIK.H
C:\PROJECT2\SPRINGHEAD\CORE\INCLUDE\PHYSICS\SPRPHENGINE.H
C:\PROJECT2\SPRINGHEAD\CORE\INCLUDE\PHYSICS\SPRPHOPOBJ.H
C:\PROJECT2\SPRINGHEAD\CORE\INCLUDE\PHYSICS\SPRPHFEMMESH.H
C:\PROJECT2\SPRINGHEAD\CORE\INCLUDE\PHYSICS\SPRPHFEMMESHNEW.H
C:\PROJECT2\SPRINGHEAD\CORE\INCLUDE\PHYSICS\SPRPHHAPTIC.H
C:\PROJECT2\SPRINGHEAD\CORE\INCLUDE\PHYSICS\SPRPHSKELETON.H
C:\PROJECT2\SPRINGHEAD\CORE\INCLUDE\PHYSICS\SPRPHOPSPHASHAGENT.H
C:\PROJECT2\SPRINGHEAD\CORE\INCLUDE\PHYSICS\SPRPHNODEHANDLERS.H
C:\PROJECT2\SPRINGHEAD\CORE\INCLUDE\SPRGRAPHICS.H
C:\PROJECT2\SPRINGHEAD\CORE\INCLUDE\GRAPHICS\SPRGRRENDER.H
C:\PROJECT2\SPRINGHEAD\CORE\INCLUDE\GRAPHICS\SPRGRFRAME.H
C:\PROJECT2\SPRINGHEAD\CORE\INCLUDE\GRAPHICS\SPRGRVERTEX.H
C:\PROJECT2\SPRINGHEAD\CORE\INCLUDE\GRAPHICS\SPRGRSHADER.H
C:\PROJECT2\SPRINGHEAD\CORE\INCLUDE\GRAPHICS\SPRGRSDK.H
C:\PROJECT2\SPRINGHEAD\CORE\INCLUDE\GRAPHICS\SPRGRSCENE.H
C:\PROJECT2\SPRINGHEAD\CORE\INCLUDE\GRAPHICS\SPRGRMESH.H
C:\PROJECT2\SPRINGHEAD\CORE\INCLUDE\GRAPHICS\SPRGRBLENDMESH.H
C:\PROJECT2\SPRINGHEAD\CORE\INCLUDE\GRAPHICS\SPRGRSPHERE.H
C:\PROJECT2\SPRINGHEAD\CORE\INCLUDE\SPRFILEIO.H
C:\PROJECT2\SPRINGHEAD\CORE\INCLUDE\FILEIO\SPRFISDK.H
C:\PROJECT2\SPRINGHEAD\CORE\INCLUDE\FILEIO\SPRFIFILE.H
C:\PROJECT2\SPRINGHEAD\CORE\INCLUDE\FILEIO\SPRFIIMPORT.H
C:\PROJECT2\SPRINGHEAD\CORE\INCLUDE\FILEIO\SPRFIOPSTATEHANDLER.H
C:\PROJECT2\SPRINGHEAD\CORE\INCLUDE\SPRHUMANINTERFACE.H
C:\PROJECT2\SPRINGHEAD\CORE\INCLUDE\HUMANINTERFACE\SPRHISDK.H
C:\PROJECT2\SPRINGHEAD\CORE\INCLUDE\HUMANINTERFACE\SPRHIBASE.H
C:\PROJECT2\SPRINGHEAD\CORE\INCLUDE\HUMANINTERFACE\SPRHIDEVICE.H
C:\PROJECT2\SPRINGHEAD\CORE\INCLUDE\HUMANINTERFACE\SPRHUMANINTERFACEDECL.HPP
C:\PROJECT2\SPRINGHEAD\CORE\INCLUDE\HUMANINTERFACE\SPRHISPIDAR.H
C:\PROJECT2\SPRINGHEAD\CORE\INCLUDE\HUMANINTERFACE\SPRHINOVINT.H
C:\PROJECT2\SPRINGHEAD\CORE\INCLUDE\HUMANINTERFACE\SPRHIKEYMOUSE.H
C:\PROJECT2\SPRINGHEAD\CORE\INCLUDE\HUMANINTERFACE\SPRHIJOYSTICK.H
C:\PROJECT2\SPRINGHEAD\CORE\INCLUDE\HUMANINTERFACE\SPRHITRACKBALL.H
C:\PROJECT2\SPRINGHEAD\CORE\INCLUDE\HUMANINTERFACE\SPRHIDRUSB.H
C:\PROJECT2\SPRINGHEAD\CORE\INCLUDE\HUMANINTERFACE\SPRHISPACENAVIGATOR.H
C:\PROJECT2\SPRINGHEAD\CORE\INCLUDE\HUMANINTERFACE\SPRHIXBOX360CONTROLLER.H
C:\PROJECT2\SPRINGHEAD\CORE\INCLUDE\HUMANINTERFACE\SPRHISKELETONSENSOR.H
C:\PROJECT2\SPRINGHEAD\CORE\INCLUDE\HUMANINTERFACE\SPRHILEAP.H
C:\PROJECT2\SPRINGHEAD\CORE\INCLUDE\SPRDEVICE.H
C:\PROJECT2\SPRINGHEAD\CORE\INCLUDE\SPRFRAMEWORK.H
C:\PROJECT2\SPRINGHEAD\CORE\INCLUDE\FRAMEWORK\SPRFWOBJECT.H
C:\PROJECT2\SPRINGHEAD\CORE\INCLUDE\FRAMEWORK\SPRFWSCENE.H
C:\PROJECT2\SPRINGHEAD\CORE\INCLUDE\FRAMEWORK\SPRFWSKELETONSENSOR.H
C:\PROJECT2\SPRINGHEAD\CORE\INCLUDE\FRAMEWORK\SPRFWSDK.H
C:\PROJECT2\SPRINGHEAD\CORE\INCLUDE\FRAMEWORK\SPRFWFEMMESH.H
C:\PROJECT2\SPRINGHEAD\CORE\INCLUDE\FRAMEWORK\SPRFWFEMMESHNEW.H
C:\PROJECT2\SPRINGHEAD\CORE\INCLUDE\FRAMEWORK\SPRFWWIN.H
C:\PROJECT2\SPRINGHEAD\CORE\INCLUDE\FRAMEWORK\SPRFWHAPTICPOINTER.H
C:\PROJECT2\SPRINGHEAD\CORE\INCLUDE\FRAMEWORK\SPRFWOPTIMIZER.H
C:\PROJECT2\SPRINGHEAD\CLOSED\INCLUDE\CMAES\CMAES.H
C:\PROJECT2\SPRINGHEAD\CLOSED\INCLUDE\CMAES\PARAMETERS.H
C:\PROJECT2\SPRINGHEAD\CLOSED\INCLUDE\CMAES\RANDOM.H
C:\PROGRAM FILES (X86)\MICROSOFT VISUAL STUDIO 14.0\VC\INCLUDE\CTIME
C:\PROGRAM FILES (X86)\WINDOWS KITS\10\INCLUDE\10.0.10240.0\UCRT\TIME.H
C:\PROJECT2\SPRINGHEAD\CLOSED\INCLUDE\CMAES\TIMINGS.H
C:\PROJECT2\SPRINGHEAD\CLOSED\INCLUDE\CMAES\UTILS.H
C:\PROGRAM FILES (X86)\MICROSOFT VISUAL STUDIO 14.0\VC\INCLUDE\CASSERT
C:\PROGRAM FILES (X86)\MICROSOFT VISUAL STUDIO 14.0\VC\INCLUDE\IOMANIP
C:\PROGRAM FILES (X86)\MICROSOFT VISUAL STUDIO 14.0\VC\INCLUDE\XLOCMON
C:\PROGRAM FILES (X86)\MICROSOFT VISUAL STUDIO 14.0\VC\INCLUDE\XLOCTIME
C:\PROGRAM FILES (X86)\MICROSOFT VISUAL STUDIO 14.0\VC\INCLUDE\CHRONO
C:\PROGRAM FILES (X86)\MICROSOFT VISUAL STUDIO 14.0\VC\INCLUDE\RATIO
C:\PROGRAM FILES (X86)\MICROSOFT VISUAL STUDIO 14.0\VC\INCLUDE\THR\XTIMEC.H
C:\PROGRAM FILES (X86)\MICROSOFT VISUAL STUDIO 14.0\VC\INCLUDE\THR\XTHRCOMMON.H
C:\PROGRAM FILES (X86)\MICROSOFT VISUAL STUDIO 14.0\VC\INCLUDE\QUEUE
C:\PROGRAM FILES (X86)\MICROSOFT VISUAL STUDIO 14.0\VC\INCLUDE\DEQUE
C:\PROJECT2\SPRINGHEAD\CORE\INCLUDE\SPRCREATURE.H
C:\PROJECT2\SPRINGHEAD\CORE\INCLUDE\CREATURE\SPRCRSDK.H
C:\PROJECT2\SPRINGHEAD\CORE\INCLUDE\CREATURE\SPRCRCREATURE.H
C:\PROJECT2\SPRINGHEAD\CORE\INCLUDE\CREATURE\SPRCRBODY.H
C:\PROJECT2\SPRINGHEAD\CORE\INCLUDE\CREATURE\SPRCRBONE.H
C:\PROJECT2\SPRINGHEAD\CORE\INCLUDE\CREATURE\SPRCRENGINE.H
C:\PROJECT2\SPRINGHEAD\CORE\INCLUDE\CREATURE\SPRCRCONTROLLER.H
C:\PROJECT2\SPRINGHEAD\CORE\INCLUDE\CREATURE\SPRCRREACHCONTROLLER.H
C:\PROJECT2\SPRINGHEAD\CORE\INCLUDE\CREATURE\SPRCRTOUCHSENSOR.H
C:\PROJECT2\SPRINGHEAD\CORE\INCLUDE\CREATURE\SPRCRVISUALSENSOR.H
C:\PROJECT2\SPRINGHEAD\CORE\INCLUDE\FRAMEWORK\SPRFWAPP.H
C:\PROJECT2\SPRINGHEAD\CORE\INCLUDE\FRAMEWORK\SPRFWCONSOLEDEBUGMONITOR.H
C:\PROJECT2\SPRINGHEAD\DEPENDENCY\SRC\AL\AL.H
C:\PROJECT2\SPRINGHEAD\DEPENDENCY\SRC\AL\ALC.H
C:\PROGRAM FILES (X86)\WINDOWS KITS\10\INCLUDE\10.0.10240.0\UCRT\CONIO.H
