^C:\PROJECT2\EXPERIMENTS\HAPTICINTERACTION\FWTIMEVARIANTFRICTIONSAMPLE\14.0\WIN32\DEBUG\FWTIMEVARIANTFRICTION.OBJ|C:\PROJECT2\EXPERIMENTS\HAPTICINTERACTION\FWTIMEVARIANTFRICTIONSAMPLE\14.0\WIN32\DEBUG\MAIN.OBJ|C:\PROJECT2\SPRINGHEAD\CORE\SRC\BASE\BASE14.0DWIN32.LIB|C:\PROJECT2\SPRINGHEAD\CORE\SRC\COLLISION\COLLISION14.0DWIN32.LIB|C:\PROJECT2\SPRINGHEAD\CORE\SRC\FILEIO\FILEIO14.0DWIN32.LIB|C:\PROJECT2\SPRINGHEAD\CORE\SRC\FOUNDATION\FOUNDATION14.0DWIN32.LIB|C:\PROJECT2\SPRINGHEAD\CORE\SRC\FRAMEWORK\FRAMEWORK14.0DWIN32.LIB|C:\PROJECT2\SPRINGHEAD\CORE\SRC\GRAPHICS\GRAPHICS14.0DWIN32.LIB|C:\PROJECT2\SPRINGHEAD\CORE\SRC\HUMANINTERFACE\HUMANINTERFACE14.0DWIN32.LIB|C:\PROJECT2\SPRINGHEAD\CORE\SRC\PHYSICS\PHYSICS14.0DWIN32.LIB
C:\PROJECT2\EXPERIMENTS\HAPTICINTERACTION\FWTIMEVARIANTFRICTIONSAMPLE\14.0\WIN32\DEBUG\FWTIMEVARIANTFRICTION.ILK
C:\PROJECT2\EXPERIMENTS\HAPTICINTERACTION\FWTIMEVARIANTFRICTIONSAMPLE\14.0\WIN32\DEBUG\FWTIMEVARIANTFRICTION.EXE
C:\PROJECT2\EXPERIMENTS\HAPTICINTERACTION\FWTIMEVARIANTFRICTIONSAMPLE\14.0\WIN32\DEBUG\FWTIMEVARIANTFRICTION.PDB
